;Новичок;Вокалист;Музыкант;Группа;Прочее;id;description
Запись песни под минус;X;X;;;X;record;"Спеть известную песню на студии звукозаписи - нет ничего проще.
Приезжайте к нам с минусовкой песни и пойте!"
Аранжировка;X;X;X;;X;arangement;"Написание аранжировок в любой стилистике и любой сложности по Вашему творческому заданию."
Создание минусовки;X;X;;;X;produce;"Если Вы не можете найти в интернете минусовку на песню, мы можем изготовить её для Вас!"
Многоканальная запись;;;X;X;X;multitrack;"Многоканальная последовательная запись мультитрека, максимальное качество."
Студийная запись (Live);;;;X;X;live;"Живая запись репетиции, экономичный вариант для создания demo своих песен."
Написание текста;X;;X;;X;text;"Текст на любую тематику от наших авторов-текстовиков по Вашему творческому заданию."
Песня "под ключ";X;;;;X;welldone;"Создаём песню под ключ для Вас. Текст, музыка, запись, сведение - всё включено."
Сведение и мастеринг;;X;X;X;X;mixing;"Наши звукорежиссеры сделают так, чтобы Ваш трек зазвучал новыми красками."
Аренда;;X;X;X;X;rent;"Почасовая аренда студии для любых творческих целей."
Прочее;X;X;X;X;X;other;"Возможно, Вы не нашли то, что Вам нужно в нашем спектре услуг? Тогда Вам сюда!"