label;value
Стоимость часа; 800,00 ₽
Ставка звукорежиссера; 	400,00 ₽
Скидка (за доп. песню);3 %
Скидка (карточка);10 %
Скидка MAX;15 %
Urgency 1;100 %
Urgency A;50 %
Urgency B;20 %
Urgency C;0 %
Подарочный сертификат;100 ₽
Доставка;500 ₽
Наценка;1,20